Problem Set 4 Solution
…
population

# A tibble: 104 × 4
   state_name   state  year population
   <chr>        <chr> <dbl>      <dbl>
 1 Oklahoma     OK     2020    3962031
 2 Oklahoma     OK     2021    3986639
 3 Nebraska     NE     2020    1961455
 4 Nebraska     NE     2021    1963692
 5 Hawaii       HI     2020    1451911
 6 Hawaii       HI     2021    1441553
 7 South Dakota SD     2020     887099
 8 South Dakota SD     2021     895376
 9 Tennessee    TN     2020    6920119
10 Tennessee    TN     2021    6975218
# ℹ 94 more rows
…
regions

# A tibble: 59 × 3
   state_name     region region_name
   <chr>           <int> <chr>      
 1 Connecticut         1 New England
 2 Maine               1 New England
 3 Massachusetts       1 New England
 4 New Hampshire       1 New England
 5 Rhode Island        1 New England
 6 Vermont             1 New England
 7 New Jersey          2 NY/NJ/PR/VI
 8 New York            2 NY/NJ/PR/VI
 9 Puerto Rico         2 NY/NJ/PR/VI
10 Virgin Islands      2 NY/NJ/PR/VI
# ℹ 49 more rows

4. Join population and regions

population <- population |>
  left_join(regions, by = "state_name")

population

# A tibble: 104 × 6
   state_name   state  year population region region_name    
   <chr>        <chr> <dbl>      <dbl>  <int> <chr>          
 1 Oklahoma     OK     2020    3962031      6 South Central  
 2 Oklahoma     OK     2021    3986639      6 South Central  
 3 Nebraska     NE     2020    1961455      7 Central Plains 
 4 Nebraska     NE     2021    1963692      7 Central Plains 
 5 Hawaii       HI     2020    1451911      9 Pacific        
 6 Hawaii       HI     2021    1441553      9 Pacific        
 7 South Dakota SD     2020     887099      8 Mountain States
 8 South Dakota SD     2021     895376      8 Mountain States
 9 Tennessee    TN     2020    6920119      4 Southeast      
10 Tennessee    TN     2021    6975218      4 Southeast      
# ℹ 94 more rows
…
cases

# A tibble: 8,996 × 5
   state mmwr_year mmwr_week date       cases
   <chr>     <dbl>     <dbl> <date>     <dbl>
 1 AK         2020         4 2020-01-22     0
 2 AK         2020         5 2020-01-29     0
 3 AK         2020         6 2020-02-05     0
 4 AK         2020         7 2020-02-12     0
 5 AK         2020         8 2020-02-19     0
 6 AK         2020         9 2020-02-26     0
 7 AK         2020        10 2020-03-04     0
 8 AK         2020        11 2020-03-11     0
 9 AK         2020        12 2020-03-18    11
10 AK         2020        13 2020-03-25    52
# ℹ 8,986 more rows
…
hosp

# A tibble: 10,192 × 5
   state mmwr_year mmwr_week date        hosp
   <chr>     <dbl>     <dbl> <date>     <dbl>
 1 AK         2020        31 2020-08-01     5
 2 AK         2020        32 2020-08-08    28
 3 AK         2020        33 2020-08-15    22
 4 AK         2020        34 2020-08-22    31
 5 AK         2020        35 2020-08-29    31
 6 AK         2020        36 2020-09-05    35
 7 AK         2020        37 2020-09-12    30
 8 AK         2020        38 2020-09-19    38
 9 AK         2020        39 2020-09-26    35
10 AK         2020        40 2020-10-03    33
# ℹ 10,182 more rows
…
deaths

# A tibble: 17,056 × 5
   state mmwr_year mmwr_week date       deaths
   <chr>     <dbl>     <dbl> <date>      <dbl>
 1 AK         2020         1 2020-01-04      0
 2 AK         2020         2 2020-01-11      0
 3 AK         2020         3 2020-01-18      0
 4 AK         2020         4 2020-01-25      0
 5 AK         2020         5 2020-02-01      0
 6 AK         2020         6 2020-02-08      0
 7 AK         2020         7 2020-02-15      0
 8 AK         2020         8 2020-02-22      0
 9 AK         2020         9 2020-02-29      0
10 AK         2020        10 2020-03-07      0
# ℹ 17,046 more rows
…
vax

# A tibble: 6,552 × 6
   state date         vax booster mmwr_year mmwr_week
   <chr> <date>     <dbl>   <dbl>     <dbl>     <dbl>
 1 AK    2020-12-19     0       0      2020        51
 2 AK    2020-12-26     0       0      2020        52
 3 AK    2021-01-02     0       0      2020        53
 4 AK    2021-01-09     0       0      2021         1
 5 AK    2021-01-16     0       0      2021         2
 6 AK    2021-01-23     0       0      2021         3
 7 AK    2021-01-30     0       0      2021         4
 8 AK    2021-02-06     0       0      2021         5
 9 AK    2021-02-13     0       0      2021         6
10 AK    2021-02-20     0       0      2021         7
# ℹ 6,542 more rows
…
saveRDS(dat, "data/dat.rds") # save dat as an RDS file. readback : readRDS("path-to-file")

dat

# A tibble: 5,252 × 13
   date       mmwr_year mmwr_week state state_name population region region_name
   <date>         <dbl>     <dbl> <chr> <chr>           <dbl>  <int> <chr>      
 1 2020-01-25      2020         4 AK    Alaska         732441     10 Pacific No…
 2 2020-02-01      2020         5 AK    Alaska         732441     10 Pacific No…
 3 2020-02-08      2020         6 AK    Alaska         732441     10 Pacific No…
 4 2020-02-15      2020         7 AK    Alaska         732441     10 Pacific No…
 5 2020-02-22      2020         8 AK    Alaska         732441     10 Pacific No…
 6 2020-02-29      2020         9 AK    Alaska         732441     10 Pacific No…
 7 2020-03-07      2020        10 AK    Alaska         732441     10 Pacific No…
 8 2020-03-14      2020        11 AK    Alaska         732441     10 Pacific No…
 9 2020-03-21      2020        12 AK    Alaska         732441     10 Pacific No…
10 2020-03-28      2020        13 AK    Alaska         732441     10 Pacific No…
# ℹ 5,242 more rows
# ℹ 5 more variables: cases <dbl>, hosp <dbl>, deaths <dbl>, vax <dbl>,
#   booster <dbl>
…
